{
  "services-rest": [
    {
      "method": "flickr.photos.getRecent",
      "body": {"photos":{"page":1,"pages":10,"perpage":100,"total":1000,"photo":[{"id":"28792333507","owner":"27250264@N02","secret":"1a6f8a51ca","server":"933","farm":1,"title":"2018-07-28_08-21-44","ispublic":1,"isfriend":0,"isfamily":0},{"id":"28792342607","owner":"28867896@N05","secret":"b06614b3b2","server":"852","farm":1,"title":"Maroon5 - groupie!","ispublic":1,"isfriend":0,"isfamily":0},{"id":"28792344427","owner":"34127069@N02","secret":"35fb500964","server":"860","farm":1,"title":"\u304a\u3057\u308a\u305f\u3093\u3066\u3044 \uff036 \u30d7\u30d7\u30c3 \u304a\u304d\u3083\u304f\u3055\u3093\u306e\u308f\u3059\u308c\u3082\u306e","ispublic":1,"isfriend":0,"isfamily":0},{"id":"28792345937","owner":"161824693@N04","secret":"77b05f2af0","server":"855","farm":1,"title":"Bracelets : Angel Stretch Bracelet BG Engraved Blessing Tri Tone Silver Gold and Copper Tone\u2026","ispublic":1,"isfriend":0,"isfamily":0},{"id":"28792346087","owner":"141640469@N06","secret":"2802d8c135","server":"933","farm":1,"title":"IMG_3696","ispublic":1,"isfriend":0,"isfamily":0},{"id":"28792346257","owner":"162870974@N07","secret":"86142a9800","server":"854","farm":1,"title":"Haircuts Ideas  : x","ispublic":1,"isfriend":0,"isfamily":0},{"id":"28792346517","owner":"139527896@N02","secret":"aec96eb479","server":"859","farm":1,"title":"Wedding Crowns : veil and flower crown \/ Marion Photography","ispublic":1,"isfriend":0,"isfamily":0},{"id":"28792349857","owner":"158330564@N06","secret":"86e264a2ee","server":"941","farm":1,"title":"I have a picture at 2018-07-27 19:23:04","ispublic":1,"isfriend":0,"isfamily":0},{"id":"28792350877","owner":"156923452@N02","secret":"1c52d9dd0b","server":"858","farm":1,"title":"warning mail","ispublic":1,"isfriend":0,"isfamily":0},{"id":"28792355777","owner":"151383335@N07","secret":"14aefc800c","server":"848","farm":1,"title":"Testing out the shower","ispublic":1,"isfriend":0,"isfamily":0},{"id":"28792357157","owner":"154475973@N08","secret":"55ba96d0c8","server":"860","farm":1,"title":"","ispublic":1,"isfriend":0,"isfamily":0},{"id":"28792359847","owner":"154546384@N03","secret":"e1d7ba65b6","server":"852","farm":1,"title":"at home","ispublic":1,"isfriend":0,"isfamily":0},{"id":"28792363557","owner":"93548195@N00","secret":"ca7c7e636a","server":"854","farm":1,"title":"Photo","ispublic":1,"isfriend":0,"isfamily":0},{"id":"28792364997","owner":"157617842@N02","secret":"032f9ab10f","server":"851","farm":1,"title":"Going out","ispublic":1,"isfriend":0,"isfamily":0},{"id":"28792366717","owner":"47910082@N02","secret":"d7a268672a","server":"862","farm":1,"title":"Eclipse de Luna","ispublic":1,"isfriend":0,"isfamily":0},{"id":"28792368077","owner":"141575507@N05","secret":"189c2b93a2","server":"938","farm":1,"title":"","ispublic":1,"isfriend":0,"isfamily":0},{"id":"29811658238","owner":"165984055@N07","secret":"29b8f5c83c","server":"939","farm":1,"title":"Seashells rule \ud83d\ude01","ispublic":1,"isfriend":0,"isfamily":0},{"id":"29811659308","owner":"74633825@N03","secret":"1e5b4f3ef4","server":"853","farm":1,"title":"12 Things That Don't Seem Real but Definitely Are https:\/\/t.co\/JMHBF6AbkP","ispublic":1,"isfriend":0,"isfamily":0},{"id":"29811660168","owner":"124187750@N03","secret":"50f16c7b0d","server":"855","farm":1,"title":"Algowood_20180625be","ispublic":1,"isfriend":0,"isfamily":0},{"id":"29811660308","owner":"154310511@N02","secret":"b0d58c5970","server":"860","farm":1,"title":"Hair Styles Ideas : Trending braids and hairstyles from Pinterest #hair #hairstyles #haircolor #hair...","ispublic":1,"isfriend":0,"isfamily":0},{"id":"29811675168","owner":"165621369@N03","secret":"16dfa5d2aa","server":"855","farm":1,"title":"Women's Swimwear : Tropical Orange Leaves Long Sleeve One Piece Swimsuit","ispublic":1,"isfriend":0,"isfamily":0},{"id":"29811676248","owner":"159759118@N03","secret":"b90d584687","server":"862","farm":1,"title":"DIY Home Decor Ideas: A Super Inexpensive Way to Update Dollar Tree Pumpkins!","ispublic":1,"isfriend":0,"isfamily":0},{"id":"29811683848","owner":"156375322@N07","secret":"046340ddd6","server":"932","farm":1,"title":"Repost and expose me please \ud83d\ude18","ispublic":1,"isfriend":0,"isfamily":0},{"id":"29811684398","owner":"155140314@N03","secret":"0af43ef284","server":"937","farm":1,"title":"Positive Quotes : 57 Funny Quotes of The Day and Funny Sayings 25","ispublic":1,"isfriend":0,"isfamily":0},{"id":"29811685388","owner":"85356280@N07","secret":"8565c310e0","server":"941","farm":1,"title":"IMG_3512.jpg","ispublic":1,"isfriend":0,"isfamily":0},{"id":"29811686788","owner":"158347690@N02","secret":"16192a4597","server":"937","farm":1,"title":"Symantec SSL Certificates","ispublic":1,"isfriend":0,"isfamily":0},{"id":"29811687178","owner":"24608374@N08","secret":"2b04934458","server":"862","farm":1,"title":"2018-07-27_05-24-44","ispublic":1,"isfriend":0,"isfamily":0},{"id":"41873208110","owner":"86396918@N07","secret":"bab7636c58","server":"942","farm":1,"title":"4S9A3917.jpg","ispublic":1,"isfriend":0,"isfamily":0},{"id":"41873214110","owner":"26364507@N05","secret":"5f7fa1cfec","server":"939","farm":1,"title":"Plantas en el muro del Puerto de Finisterre.","ispublic":1,"isfriend":0,"isfamily":0},{"id":"41873215350","owner":"27711944@N03","secret":"feb0277123","server":"937","farm":1,"title":"Her name is Reverie! \ud83d\udc96","ispublic":1,"isfriend":0,"isfamily":0},{"id":"41873222930","owner":"159292834@N08","secret":"5a76bb57eb","server":"852","farm":1,"title":"Haircuts Ideas  : x","ispublic":1,"isfriend":0,"isfamily":0},{"id":"41873223530","owner":"141553047@N04","secret":"1f973fa908","server":"854","farm":1,"title":"Drink More Coffee and You Just Might Live Longer","ispublic":1,"isfriend":0,"isfamily":0},{"id":"41873224230","owner":"158566317@N08","secret":"401485f37d","server":"860","farm":1,"title":"Propone Morena reducir 50% de financiamiento p\u00fablico a partidos","ispublic":1,"isfriend":0,"isfamily":0},{"id":"41873225180","owner":"140960719@N06","secret":"5cb688d88b","server":"850","farm":1,"title":"Wedding Crowns : veil and flower crown \/ Marion Photography","ispublic":1,"isfriend":0,"isfamily":0},{"id":"41873231380","owner":"144429258@N06","secret":"8ef2bc8c1a","server":"861","farm":1,"title":"2018-07-28_00.20.22.UTC.jpg","ispublic":1,"isfriend":0,"isfamily":0},{"id":"41873232440","owner":"146889411@N02","secret":"21efe59699","server":"935","farm":1,"title":"BALEAN DURANTE ASALTO EN BANCO DE VERACRUZ A CONTADOR","ispublic":1,"isfriend":0,"isfamily":0},{"id":"41873233220","owner":"104452172@N02","secret":"bd7e44354c","server":"931","farm":1,"title":"Eagle","ispublic":1,"isfriend":0,"isfamily":0},{"id":"41873233790","owner":"162946974@N07","secret":"4d0ab12804","server":"851","farm":1,"title":"ThienMy HealthCare: VI\u00caN U\u1ed0NG GI\u1ea2M C\u00c2N DETOX SLIMMING CAPSULES Gi\u00e1 b\u00e1n: 900.000 #ThienMyPharma #Gi\u1ea3mC\u00e2n #pin #Beauty Zalo: 093 347 39 62 Website: https:\/\/thienmypharma.com.vn\/ho-tro-giam-can\/giam-can-detox-slimming-capsule https:\/\/www.pinterest.com\/pin\/73","ispublic":1,"isfriend":0,"isfamily":0},{"id":"41873234310","owner":"141314917@N05","secret":"aee7e96141","server":"851","farm":1,"title":"Funny Quotes : Quotes for Fun   QUOTATION \u2013 Image :    As the quote says \u2013 Description  \u201c...","ispublic":1,"isfriend":0,"isfamily":0},{"id":"41873236040","owner":"141503931@N03","secret":"775d5d125b","server":"860","farm":1,"title":"Panoramas","ispublic":1,"isfriend":0,"isfamily":0},{"id":"41873237570","owner":"162731833@N04","secret":"58f3e741fb","server":"862","farm":1,"title":"Positive Quotes : 57 Funny Quotes of The Day and Funny Sayings 25","ispublic":1,"isfriend":0,"isfamily":0},{"id":"41873240050","owner":"164643189@N03","secret":"e6419cba0b","server":"939","farm":1,"title":"Clocks - Decor Objects: Thermometer and Hygrometer Wall Clock","ispublic":1,"isfriend":0,"isfamily":0},{"id":"41873240250","owner":"158413661@N04","secret":"d9087dfc31","server":"939","farm":1,"title":"Aanaya Vol 38 Designer Suit Long Online Designer Suit Black S1048-1","ispublic":1,"isfriend":0,"isfamily":0},{"id":"41873240540","owner":"161199466@N06","secret":"8f36ff267f","server":"862","farm":1,"title":"How Shadow banning works \u2013 YouTube","ispublic":1,"isfriend":0,"isfamily":0},{"id":"41873240600","owner":"158948649@N02","secret":"0ac6759a11","server":"855","farm":1,"title":"J3AVS.jpg","ispublic":1,"isfriend":0,"isfamily":0},{"id":"41873240910","owner":"138007169@N02","secret":"0ac2e004bb","server":"858","farm":1,"title":"","ispublic":1,"isfriend":0,"isfamily":0},{"id":"42778488155","owner":"159721897@N08","secret":"8feda63bbf","server":"855","farm":1,"title":"Penicillium (penisilin) Nedir?","ispublic":1,"isfriend":0,"isfamily":0},{"id":"42778497295","owner":"165472217@N06","secret":"186de27238","server":"852","farm":1,"title":"Tinh d\u1ea7u long n\u00e3o","ispublic":1,"isfriend":0,"isfamily":0},{"id":"42778501695","owner":"165293287@N06","secret":"af5985bf4a","server":"854","farm":1,"title":"Wedding Crowns : veil and flower crown \/ Marion Photography","ispublic":1,"isfriend":0,"isfamily":0},{"id":"42778501885","owner":"155027160@N03","secret":"a77c8b652e","server":"937","farm":1,"title":"IMG_9104.jpg","ispublic":1,"isfriend":0,"isfamily":0},{"id":"42778510985","owner":"48423781@N04","secret":"eb8551552e","server":"848","farm":1,"title":"Baju Korporat 03 6148 0154 Baju Korporat Terkini 03 61435225","ispublic":1,"isfriend":0,"isfamily":0},{"id":"42778511325","owner":"118158037@N08","secret":"5623d7dd8a","server":"851","farm":1,"title":"20180719_122618","ispublic":1,"isfriend":0,"isfamily":0},{"id":"42778511735","owner":"126754357@N06","secret":"53e09490dc","server":"937","farm":1,"title":"Smithsonian","ispublic":1,"isfriend":0,"isfamily":0},{"id":"42778513015","owner":"90911209@N08","secret":"d9a9b36dfe","server":"853","farm":1,"title":"ZK-OKN Air New Zealand Boeing and 777-3","ispublic":1,"isfriend":0,"isfamily":0},{"id":"42778513335","owner":"149845690@N07","secret":"8c11c7081d","server":"936","farm":1,"title":"JZU8M.jpg","ispublic":1,"isfriend":0,"isfamily":0},{"id":"42964838444","owner":"46055880@N03","secret":"b64bf55a69","server":"860","farm":1,"title":"\u62ff\u94c1 Latte AUD$4 @ Woods Cafe Park view Hotel St.Kilda Melbourne Australia","ispublic":1,"isfriend":0,"isfamily":0},{"id":"42964842734","owner":"97186971@N06","secret":"2562b65059","server":"853","farm":1,"title":"Total Lunar Eclipse - Bloody Moon","ispublic":1,"isfriend":0,"isfamily":0},{"id":"42964845324","owner":"105478403@N02","secret":"94f1b5bb11","server":"929","farm":1,"title":"And where are you when the sun goes down","ispublic":1,"isfriend":0,"isfamily":0},{"id":"42964846764","owner":"147627672@N02","secret":"06fe87022f","server":"942","farm":1,"title":"Moonset Meteor [OC] [Mount Rainier National Park, Washington, USA] [1864 \u00d7 1242]","ispublic":1,"isfriend":0,"isfamily":0},{"id":"42964849604","owner":"46104149@N07","secret":"f717077be4","server":"942","farm":1,"title":"DSC06091","ispublic":1,"isfriend":0,"isfamily":0},{"id":"42964852334","owner":"142814608@N05","secret":"7b30d315da","server":"936","farm":1,"title":"Hair Styles Ideas : Trending braids and hairstyles from Pinterest #hair #hairstyles #haircolor #hair...","ispublic":1,"isfriend":0,"isfamily":0},{"id":"42964853104","owner":"150813267@N03","secret":"79c70eb63c","server":"935","farm":1,"title":"\"Do\u00f1a Finita\"","ispublic":1,"isfriend":0,"isfamily":0},{"id":"42964854094","owner":"159355701@N07","secret":"b1e6a640ff","server":"940","farm":1,"title":"Hair Styles Ideas : Trending braids and hairstyles from Pinterest #hair #hairstyles #haircolor #hair...","ispublic":1,"isfriend":0,"isfamily":0},{"id":"42964854164","owner":"137072611@N06","secret":"ebf81b05a6","server":"849","farm":1,"title":"Smoking is out","ispublic":1,"isfriend":0,"isfamily":0},{"id":"42964855424","owner":"45292777@N03","secret":"395b367aa5","server":"855","farm":1,"title":"ONE VISAYAS PRAYER TEAM! Every church represented praying for one another and the DISCIPLESHIP 2018! Thank you for all our prayer volunteers. #onevisayas #victoryvisayas","ispublic":1,"isfriend":0,"isfamily":0},{"id":"42964859764","owner":"49347095@N00","secret":"f343dbac9f","server":"928","farm":1,"title":"un mosaico de historias","ispublic":1,"isfriend":0,"isfamily":0},{"id":"42964860804","owner":"157875910@N04","secret":"879b2f0f9f","server":"938","farm":1,"title":"Food : Food   Illustration   Description   \u00a35 tickets to Vegfest 2014 at Kensington Ol...","ispublic":1,"isfriend":0,"isfamily":0},{"id":"42964869874","owner":"163436393@N04","secret":"b18ac0779c","server":"860","farm":1,"title":"","ispublic":1,"isfriend":0,"isfamily":0},{"id":"42964878164","owner":"36532156@N02","secret":"3e7081093c","server":"937","farm":1,"title":"silver spotted skipper","ispublic":1,"isfriend":0,"isfamily":0},{"id":"42964879104","owner":"153155851@N05","secret":"bda5b38a0f","server":"851","farm":1,"title":"imsi20180728092349","ispublic":1,"isfriend":0,"isfamily":0},{"id":"42964879454","owner":"165969435@N05","secret":"f038a4c957","server":"852","farm":1,"title":"","ispublic":1,"isfriend":0,"isfamily":0},{"id":"42964885044","owner":"139254026@N04","secret":"3b882fa6e5","server":"940","farm":1,"title":"nxstmp","ispublic":1,"isfriend":0,"isfamily":0},{"id":"42964885824","owner":"7588209@N02","secret":"1e563bf1ba","server":"931","farm":1,"title":"Fall River Guard Station","ispublic":1,"isfriend":0,"isfamily":0},{"id":"42964886114","owner":"155872937@N06","secret":"14a9b04d5b","server":"852","farm":1,"title":"Citations De Robin Sharma: Never forget the power of a single day. Robin Sharma... https:\/\/is.gd\/lyrgM4 #CitationsC\u00e9l\u00e8bres","ispublic":1,"isfriend":0,"isfamily":0},{"id":"42964889534","owner":"154602584@N03","secret":"52af9bef60","server":"858","farm":1,"title":"CupidsGiftShop.com Fresh Red Roses | 50 cm. long (20\")...","ispublic":1,"isfriend":0,"isfamily":0},{"id":"42964890134","owner":"149010237@N08","secret":"0af02f9df1","server":"851","farm":1,"title":"2018_07_27_192415.jpg","ispublic":1,"isfriend":0,"isfamily":0},{"id":"42964890504","owner":"155070311@N07","secret":"41df74aff8","server":"934","farm":1,"title":"knowing _ July 28, 2018 at 02:23AM","ispublic":1,"isfriend":0,"isfamily":0},{"id":"42964890614","owner":"164598773@N02","secret":"62fd7c7408","server":"930","farm":1,"title":"SUBWAY. AND MORE","ispublic":1,"isfriend":0,"isfamily":0},{"id":"42964892294","owner":"26573179@N04","secret":"1cf41c3d89","server":"862","farm":1,"title":"","ispublic":1,"isfriend":0,"isfamily":0},{"id":"42964892914","owner":"135244174@N03","secret":"3cf5bfdaff","server":"862","farm":1,"title":"\u30db\u30c3\u30c8\u30b1\u30fc\u30ad#\u671d\u98df","ispublic":1,"isfriend":0,"isfamily":0},{"id":"42964893154","owner":"154867010@N02","secret":"862142d3b5","server":"930","farm":1,"title":"Clocks - Decor Objects: Thermometer and Hygrometer Wall Clock","ispublic":1,"isfriend":0,"isfamily":0},{"id":"42964894784","owner":"158107702@N07","secret":"24fabbfb69","server":"861","farm":1,"title":"embed","ispublic":1,"isfriend":0,"isfamily":0},{"id":"42964894834","owner":"158419534@N08","secret":"0416dbd02d","server":"928","farm":1,"title":"Clocks - Decor Objects: Thermometer and Hygrometer Wall Clock","ispublic":1,"isfriend":0,"isfamily":0},{"id":"42964895324","owner":"153616380@N05","secret":"e7a201f6ce","server":"850","farm":1,"title":"Demi Lovato apparent overdose: How to keep loved ones from relapsing https:\/\/t.co\/qyavuHrMSn","ispublic":1,"isfriend":0,"isfamily":0},{"id":"43634639592","owner":"9599884@N07","secret":"fac556aeda","server":"935","farm":1,"title":"","ispublic":1,"isfriend":0,"isfamily":0},{"id":"43634641682","owner":"11624695@N03","secret":"6f76dceb3f","server":"932","farm":1,"title":"Bora come\u00e7ar mais um desafio a grafite.","ispublic":1,"isfriend":0,"isfamily":0},{"id":"43634643422","owner":"147261406@N08","secret":"a58b16b822","server":"853","farm":1,"title":"Long Beach Pet Of The Week: Zipper https:\/\/t.co\/xzbU5NTm90","ispublic":1,"isfriend":0,"isfamily":0},{"id":"43634644002","owner":"157646389@N02","secret":"8bc698341a","server":"861","farm":1,"title":"HairStyles Ideas : Gorgeous brunette hairstyle.","ispublic":1,"isfriend":0,"isfamily":0},{"id":"43634649722","owner":"158083545@N03","secret":"e53e9d30d1","server":"848","farm":1,"title":"Untitled","ispublic":1,"isfriend":0,"isfamily":0},{"id":"43634651952","owner":"135950463@N08","secret":"c32174bbd9","server":"860","farm":1,"title":"What\u2019s the Big Deal About Having A Sales Funnel","ispublic":1,"isfriend":0,"isfamily":0},{"id":"43634658022","owner":"163071853@N04","secret":"7acc4b2f38","server":"858","farm":1,"title":"Women's Swimwear : Tropical Orange Leaves Long Sleeve One Piece Swimsuit","ispublic":1,"isfriend":0,"isfamily":0},{"id":"43634660632","owner":"147697339@N04","secret":"97effb4a8f","server":"859","farm":1,"title":"\u00dcrik Asit D\u00fc\u015f\u00fckl\u00fc\u011f\u00fc Nedenleri ve Tedavisi","ispublic":1,"isfriend":0,"isfamily":0},{"id":"43634664682","owner":"135623262@N05","secret":"b0360cf371","server":"930","farm":1,"title":"Lose The Weight And Keep It Off With These Ideas","ispublic":1,"isfriend":0,"isfamily":0},{"id":"43634665162","owner":"142135588@N07","secret":"9ee1c09978","server":"930","farm":1,"title":"by World Shoe Trends","ispublic":1,"isfriend":0,"isfamily":0},{"id":"43634667322","owner":"152674184@N08","secret":"8e5ebf6bac","server":"934","farm":1,"title":"Positive Quotes : 57 Funny Quotes of The Day and Funny Sayings 25","ispublic":1,"isfriend":0,"isfamily":0},{"id":"43634668352","owner":"95092956@N00","secret":"d3d6654800","server":"857","farm":1,"title":"LM Flickr-0836.jpg","ispublic":1,"isfriend":0,"isfamily":0},{"id":"43634669532","owner":"159156595@N03","secret":"02d8a21668","server":"931","farm":1,"title":"086","ispublic":1,"isfriend":0,"isfamily":0},{"id":"43681517791","owner":"15281489@N07","secret":"ab3f8292de","server":"940","farm":1,"title":"Fallingwater","ispublic":1,"isfriend":0,"isfamily":0},{"id":"43681524801","owner":"157122930@N03","secret":"1bea721181","server":"940","farm":1,"title":"","ispublic":1,"isfriend":0,"isfamily":0},{"id":"43681525181","owner":"85203356@N02","secret":"3193b77ff9","server":"940","farm":1,"title":"One more film capture from #allgirlscarshow, this one featuring the \u201855 GMC that @theadmorg has given us ladies to build & practice on! Seriously... any lady who wants to go get hands on, practice and learn on cars this is such a rad opportunity! Follow @","ispublic":1,"isfriend":0,"isfamily":0}]},"stat":"ok"}
    },
    {
      "method": "flickr.photos.search",
      "body": {"photos":{"page":1,"pages":1,"perpage":100,"total":2,"photo":[{"id":"28792333507","owner":"27250264@N02","secret":"1a6f8a51ca","server":"933","farm":1,"title":"2018-07-28_08-21-44","ispublic":1,"isfriend":0,"isfamily":0},{"id":"28792342607","owner":"28867896@N05","secret":"b06614b3b2","server":"852","farm":1,"title":"Maroon5 - groupie!","ispublic":1,"isfriend":0,"isfamily":0}]},"stat":"ok"}
    }
  ],
  "image": {
  }
}
